Take a Sad Script & Make it Better: Tidymodels Edition | Alison Hill, PhD
…
penguin_party <-
  tune::fit_resamples(
    rt_spec,
    body_mass_g ~ .,
    resamples = penguin_folds,
    control = control_resamples(save_pred = TRUE) # add this line
)

Then we collect the predictions.

penguin_party %>% 
  collect_predictions()
#> # A tibble: 251 x 4
#>    id     .pred  .row body_mass_g
#>    <chr>  <dbl> <int>       <int>
#>  1 Fold01 3402.     4        3625
#>  2 Fold01 3402.    11        3325
#>  3 Fold01 3988.    14        3950
#>  4 Fold01 3988.    41        3700
#>  5 Fold01 3402.    54        3700
#>  6 Fold01 3988.    65        3950
#>  7 Fold01 3988.    70        4450
#>  8 Fold01 3402.    71        3300
#>  9 Fold01 3402.    76        3075
#> 10 Fold01 3402.    85        2900
#> # … with 241 more rows
…
