Read Data with Multiple Header Rows into R | Alison Hill, PhD
…
# create variable to store url
link <- "https://dataverse.harvard.edu/api/access/datafile/2712105"

The file has a .tab extension, so we know it is tab-delimited. This means that the right readr function for reading this file is read_tsv. Since we stored our link already as a character string, that is the only argument to the read_tsv function.

#install.packages("readr")
library(readr) # load the readr package
stickers <- read_tsv(link) 
# spec()

Now, we know the second row of data is wonky, but how can we see that in R? There are a number of ways we can go spelunking around into our data file. The easiest to print it. Since we used readr, we have a tibble, which nicely prints to screen.

stickers

# # A tibble: 402 × 18
#    SubjectNumber       Condition NumberStickers NumberEnvelopes Gender Agemonths
#    <chr>               <chr>     <chr>          <chr>           <chr>      <dbl>
#  1 [Included Sample O… 1=12:1; … 1=12; 2=30     1=1 recipient;… 1=fem…        NA
#  2 1                   1         1              1               1             36
#  3 2                   1         1              1               2             36
#  4 3                   1         1              1               2             36
#  5 4                   1         1              1               1             36
#  6 5                   1         1              1               2             36
#  7 6                   1         1              1               2             36
#  8 7                   2         1              2               1             36
#  9 8                   2         1              2               2             36
# 10 9                   3         2              1               2             36
# # ℹ 392 more rows
# # ℹ 12 more variables: Ageyears <dbl>, Agegroups <chr>,
# #   `Subject'sEnvelope` <chr>, LeftEnvelope <chr>, RightEnvelope <chr>,
# #   `absolutenumberofstickersgiven(Conditions1or3:Outof12;Conditions2or4:Outof30)` <chr>,
# #   `PercentGiven(Outof100percent)` <chr>, Giveornot <chr>,
# #   LargerEnvelopeabs <chr>, LargeEnvelopepercent <chr>,
# #   SmallerEnvelopeabs <chr>, SmallEnvelopepercent <chr>
…
# read in column names only
sticker_names <- link %>% 
  read_tsv(n_max = 0) %>% # default: col_names = TRUE
  rename(stickersgiven = 'absolutenumberofstickersgiven(Conditions1or3:Outof12;Conditions2or4:Outof30)') %>% 
  names()

# read in data, set column names
stickers <- link %>% 
  read_tsv(skip = 2, col_names = sticker_names) %>% 
  clean_names()

stickers

# # A tibble: 401 × 18
#    subject_number condition number_stickers number_envelopes gender agemonths
#             <dbl>     <dbl>           <dbl>            <dbl>  <dbl>     <dbl>
#  1              1         1               1                1      1        36
#  2              2         1               1                1      2        36
#  3              3         1               1                1      2        36
#  4              4         1               1                1      1        36
#  5              5         1               1                1      2        36
#  6              6         1               1                1      2        36
#  7              7         2               1                2      1        36
#  8              8         2               1                2      2        36
#  9              9         3               2                1      2        36
# 10             10         3               2                1      2        36
# # ℹ 391 more rows
# # ℹ 12 more variables: ageyears <dbl>, agegroups <dbl>,
# #   subjects_envelope <dbl>, left_envelope <dbl>, right_envelope <dbl>,
# #   stickersgiven <dbl>, percent_given_outof100percent <dbl>, giveornot <dbl>,
# #   larger_envelopeabs <dbl>, large_envelopepercent <dbl>,
# #   smaller_envelopeabs <dbl>, small_envelopepercent <dbl>
…
